^C:\USERS\ДЕНИС\DESKTOP\LAB01_IPO\LAB01_IPO\DEBUG\SOURCE.OBJ
/OUT:"C:\USERS\ДЕНИС\DESKTOP\LAB01_IPO\DEBUG\LAB01_IPO.EXE" /INCREMENTAL /NOLOGO kernel32.lib user32.lib gdi32.lib winspool.lib comdlg32.lib advapi32.lib shell32.lib ole32.lib oleaut32.lib uuid.lib odbc32.lib odbccp32.lib /MANIFEST /MANIFESTUAC:"level='asInvoker' uiAccess='false'" /manifest:embed /DEBUG /PDB:"C:\USERS\ДЕНИС\DESKTOP\LAB01_IPO\DEBUG\LAB01_IPO.PDB" /SUBSYSTEM:CONSOLE /TLBID:1 /DYNAMICBASE /NXCOMPAT /IMPLIB:"C:\USERS\ДЕНИС\DESKTOP\LAB01_IPO\DEBUG\LAB01_IPO.LIB" /MACHINE:X86 DEBUG\SOURCE.OBJ
^C:\USERS\ДЕНИС\DESKTOP\ИПЗ\LAB01_IPO\LAB01_IPO\DEBUG\SOURCE.OBJ
/OUT:"C:\USERS\ДЕНИС\DESKTOP\ИПЗ\LAB01_IPO\DEBUG\LAB01_IPO.EXE" /INCREMENTAL /NOLOGO kernel32.lib user32.lib gdi32.lib winspool.lib comdlg32.lib advapi32.lib shell32.lib ole32.lib oleaut32.lib uuid.lib odbc32.lib odbccp32.lib /MANIFEST /MANIFESTUAC:"level='asInvoker' uiAccess='false'" /manifest:embed /DEBUG /PDB:"C:\USERS\ДЕНИС\DESKTOP\ИПЗ\LAB01_IPO\DEBUG\LAB01_IPO.PDB" /SUBSYSTEM:CONSOLE /TLBID:1 /DYNAMICBASE /NXCOMPAT /IMPLIB:"C:\USERS\ДЕНИС\DESKTOP\ИПЗ\LAB01_IPO\DEBUG\LAB01_IPO.LIB" /MACHINE:X86 DEBUG\SOURCE.OBJ
