^C:\USERS\ДЕНИС\DESKTOP\LAB2\LAB2\DEBUG\MAIN.OBJ|C:\USERS\ДЕНИС\DESKTOP\LAB2\LAB2\DEBUG\SOURCE.OBJ|C:\USERS\ДЕНИС\DESKTOP\LAB2\LAB2\DEBUG\TEST.OBJ
C:\USERS\Денис\DESKTOP\LAB2\DEBUG\LAB2.ILK
C:\USERS\Денис\DESKTOP\LAB2\DEBUG\LAB2.EXE
C:\USERS\ДЕНИС\DESKTOP\LAB2\DEBUG\LAB2.PDB
