^C:\USERS\ДЕНИС\DESKTOP\LAB06_IPO\LAB06_IPO\SOURCE.CPP
/c /ZI /nologo /W3 /WX- /Od /Oy- /D WIN32 /D _DEBUG /D _CONSOLE /D _UNICODE /D UNICODE /Gm /EHsc /RTC1 /MDd /GS /fp:precise /Zc:wchar_t /Zc:forScope /Fo"DEBUG\\" /Fd"DEBUG\VC110.PDB" /Gd /TP /analyze- C:\USERS\ДЕНИС\DESKTOP\LAB06_IPO\LAB06_IPO\SOURCE.CPP
^C:\USERS\ДЕНИС\DESKTOP\ИПЗ\LAB06_IPO\LAB06_IPO\SOURCE.CPP
/c /ZI /nologo /W3 /WX- /Od /Oy- /D WIN32 /D _DEBUG /D _CONSOLE /D _UNICODE /D UNICODE /Gm /EHsc /RTC1 /MDd /GS /fp:precise /Zc:wchar_t /Zc:forScope /Fo"DEBUG\\" /Fd"DEBUG\VC110.PDB" /Gd /TP /analyze- C:\USERS\ДЕНИС\DESKTOP\ИПЗ\LAB06_IPO\LAB06_IPO\SOURCE.CPP
