^C:\USERS\USER\DOCUMENTS\VISUAL STUDIO 2010\PROJECTS\IPZ3\IPZ3\DEBUG\IPZ3.EXE.EMBED.MANIFEST.RES|C:\USERS\USER\DOCUMENTS\VISUAL STUDIO 2010\PROJECTS\IPZ3\IPZ3\DEBUG\MAIN.OBJ|C:\USERS\USER\DOCUMENTS\VISUAL STUDIO 2010\PROJECTS\IPZ3\IPZ3\DEBUG\SOURCE.OBJ
/ERRORREPORT:PROMPT /OUT:"C:\Users\User\Documents\Visual Studio 2010\Projects\Ipz3\Debug\Ipz3.exe" /INCREMENTAL /NOLOGO kernel32.lib user32.lib gdi32.lib winspool.lib comdlg32.lib advapi32.lib shell32.lib ole32.lib oleaut32.lib uuid.lib odbc32.lib odbccp32.lib /MANIFEST /ManifestFile:"Debug\Ipz3.exe.intermediate.manifest" /MANIFESTUAC:"level='asInvoker' uiAccess='false'" /DEBUG /PDB:"C:\Users\User\Documents\Visual Studio 2010\Projects\Ipz3\Debug\Ipz3.pdb" /SUBSYSTEM:CONSOLE /TLBID:1 /DYNAMICBASE /NXCOMPAT /IMPLIB:"C:\Users\User\Documents\Visual Studio 2010\Projects\Ipz3\Debug\Ipz3.lib" /MACHINE:X86 Debug\Ipz3.exe.embed.manifest.res
Debug\main.obj
Debug\source.obj
